{
	"farmID": "",
	"coldMinRange": {
		"RangeID": 1,
		"climateFactorID": 1,
		"climateClassID": 4,
		"value": "",
		"enabled": true
	},
	"coldMaxRange": {
		"RangeID": 2,
		"climateFactorID": 1,
		"climateClassID": 4,
		"value": "",
		"enabled": true
	},
	"temperedMinRange": {
		"RangeID": 1,
		"climateFactorID": 1,
		"climateClassID": 3,
		"value": "",
		"enabled": false
	},
	"temperedMaxRange": {
		"RangeID": 2,
		"climateFactorID": 1,
		"climateClassID": 3,
		"value": "",
		"enabled": false
	},
	"hotMinRange": {
		"RangeID": 1,
		"climateFactorID": 1,
		"climateClassID": 2,
		"value": "",
		"enabled": false 
	},
	"hotMaxRange": {
		"RangeID": 2,
		"climateFactorID": 1,
		"climateClassID": 2,
		"value": "",
		"enabled": false
	},
	"extremeMinRange": {
		"RangeID": 1,
		"climateFactorID": 1,
		"climateClassID": 1,
		"value": "",
		"enabled": false
	},
	"extremeMaxRange": {
		"RangeID": 2,
		"climateFactorID": 1,
		"climateClassID": 1,
		"value": "",
		"enabled": false
	},
	"dryMinRange": {
		"RangeID": 1,
		"climateFactorID": 2,
		"climateClassID": 7,
		"value": "",
		"enabled": true
	},
	"dryMaxRange": {
		"RangeID": 2,
		"climateFactorID": 2,
		"climateClassID": 7,
		"value": "",
		"enabled": true
	},
	"moderateMinRange": {
		"RangeID": 1,
		"climateFactorID": 2,
		"climateClassID": 6,
		"value": "",
		"enabled": false
	},
	"moderateMaxRange": {
		"RangeID": 2,
		"climateFactorID": 2,
		"climateClassID": 6,
		"value": "",
		"enabled": false
	},
	"wetMinRange": {
		"RangeID": 1,
		"climateFactorID": 2,
		"climateClassID": 5,
		"value": "",
		"enabled": false
	},
	"wetMaxRange": {
		"RangeID": 2,
		"climateFactorID": 2,
		"climateClassID": 5,
		"value": "",
		"enabled": false
	},
	"lowMinRange": {
		"RangeID": 1,
		"climateFactorID": 3,
		"climateClassID": 10,
		"value": "",
		"enabled": true
	},
	"lowMaxRange": {
		"RangeID": 2,
		"climateFactorID": 3,
		"climateClassID": 10,
		"value": "",
		"enabled": true
	},
	"middleMinRange": {
		"RangeID": 1,
		"climateFactorID": 3,
		"climateClassID": 9,
		"value": "",
		"enabled": false
	},
	"middleMaxRange": {
		"RangeID": 2,
		"climateFactorID": 3,
		"climateClassID": 9,
		"value": "",
		"enabled": false
	},
	"highMinRange": {
		"RangeID": 1,
		"climateFactorID": 3,
		"climateClassID": 8,
		"value": "",
		"enabled": false
	},
	"highMaxRange": {
		"RangeID": 2,
		"climateFactorID": 3,
		"climateClassID": 8,
		"value": "",
		"enabled": false
	},
	"finalInput": {
		"value": "",
		"enabled": false
	},
	"saveButton": {
		"enabled": false
	}
}